Project1
…
Lets match the words in the Bing dictionary with the ones in the stemmedwords to identify sentiments in each song.

lyrics_df%>%
  group_by(id)%>%
  unnest_tokens(output = word, input = stemmedwords)%>%
  inner_join(get_sentiments('bing'))%>%
  group_by(sentiment)

## Joining, by = "word"

## # A tibble: 1,968,110 x 8
## # Groups:   sentiment [2]
##    song        year artist genre  lyrics                      id word  sentiment
##    <chr>      <dbl> <chr>  <chr>  <chr>                    <int> <chr> <chr>    
##  1 when-you-  2009 a      Hip-H "I stopped by the house     1 fast  positive 
##  2 when-you-  2009 a      Hip-H "I stopped by the house     1 love  positive 
##  3 when-you-  2009 a      Hip-H "I stopped by the house     1 cry   negative 
##  4 when-you-  2009 a      Hip-H "I stopped by the house     1 wrong negative 
##  5 careless-  2009 a      Hip-H "I feel so unsure\nAs I     2 unsu negative 
##  6 careless-  2009 a      Hip-H "I feel so unsure\nAs I     2 lead  positive 
##  7 careless-  2009 a      Hip-H "I feel so unsure\nAs I     2 die   negative 
##  8 careless-  2009 a      Hip-H "I feel so unsure\nAs I     2 sad   negative 
##  9 careless-  2009 a      Hip-H "I feel so unsure\nAs I     2 guil negative 
## 10 careless-  2009 a      Hip-H "I feel so unsure\nAs I     2 easy  positive 
## #  with 1,968,100 more rows
…
